{
  "06f6133efc10bf1f9a2c6b5161c66fba": "Lopende tekst van opdracht is niet ontleed. Gebruik de {{bodyParser}}-middleware.",
  "083123c0a745a514ce06fa527c151a46": "{{oauth2orize.authorization}}-middleware vereist een {{server}}-argument",
  "092f3dd9c9bde61eed97f67459b46a7e": "Niet-ondersteund responstype: {0}",
  "102a3213ff01fc1b03faa5cbe720e6c0": "Ongeldige machtigingscode",
  "10b283f781f47e879e25e3b3b84f85e3": "Toestemming geweigerd door {0}",
  "12df3715215d39fdb1c5c19775091f31": "{{OAuth2orize}} vereist ontleding van lopende tekst. Bent u {{app.use(express.bodyParser())}} vergeten?",
  "14b06036ad206e2b038840c24e677b4d": "{{OAuth2orize}} vereist transactieondersteuning. Bent u {{oauth2orize.transactionLoader(...)}} vergeten?",
  "19d7beb3c393b20162c2c43135b4f1c0": "Machtigingscode is vervallen",
  "1e1b2073df0a8963670e9ed1e181dfe8": "Ongeldige {{JWT}}: {0}",
  "24ff616d05fe6b8dca8859d9dafa729e": "Ongeldige client",
  "2caa676b18561101c92e69d70820b1bf": "{{OAuth2orize}} vereist ondersteuning van {{session}}. Bent u {{app.use(express.session(...))}} vergeten?",
  "37086a106da98d5322d134d7905d1817": "Verplichte parameter ontbreekt: {{code}}",
  "373b2ad70311b6537ad42719088da022": "Fout tijdens deserialisatie van client. Registreer deserialisatiefunctie met behulp van {{deserializeClient()}}.",
  "3bffb3bbef4312d6bcbabd3240e79ef2": "{{issue}}-callback vereist voor verlening van {{oauth2orize.code}}",
  "3cfcae051965e0da5f704a334e1e884c": "Niet-overeenkomende client-ID's",
  "43a5b5bf0c7dd0bf5fec2601fe347245": "Ongeldige aanvraag: {{redirect_uri}} ontbreekt",
  "4428b355c8ba3e248b8fc0857e2181a0": "Niet-ondersteund verleningstype: {0}",
  "452b7bd4aed1b69b7c20fb701377c4eb": "Niet-geautoriseerde {{redirectURI}}: {0}",
  "47db77dd8ab3aa3c3ec1e6c955c0cc01": "Verplichte parameter ontbreekt: {{username}}",
  "53c21d3a92686e2956d527d097e1e1b9": "Toegangstoken heeft ongeldig {{user id}}: {0}",
  "54d8df1f46d3358dd33ba274a537b519": "Niet-ondersteund tokentype: {0}",
  "5b853ac61fab20ec62d53e183e067ec3": "Fout tijdens serialisatie van client. Registreer serialisatiefunctie met behulp van {{serializeClient()}}.",
  "5bc4d117f87ba20efb8cdd4c988ed46d": "{{oauth2orize.transactionLoader}}-middleware vereist een {{server}}-argument",
  "6d3b5c2b2c7c20cd8907a0b090f0e89c": "Ongeldig vernieuwingstoken",
  "6e0122e493bd949f408c1421fc757b95": "Er kan geen omleidingsroute worden opgegeven voor {{OAuth 2.0}}-transactie",
  "7175ea69be895be338ca9f9168268dab": "{{oauth2orize.decision}}-middleware vereist een {{server}}-argument",
  "740f3fb2bd1358d65943e735224d23e5": "Verplichte parameter ontbreekt: {{refresh_token}}",
  "76d075ea0325d32667fad67c446e469b": "ongeldige {{JWT}}",
  "8000aa2c64d9c95c406053764fc33f64": "Niet-geautoriseerde client",
  "83459aaa8e2d81c7fad2b899ad0cbf57": "De component {{OAuth2}} is niet geconfigureerd voor deze toepassing.",
  "839544ec984d6290cd45669efdd39699": "Niet-overeenkomende {{uri}}-omleidingen",
  "8782860f8d60f2bdb6f67d623dd7e51f": "{{oauth2orize.authorization}}-middleware vereist een {{validate}}-functie",
  "9508d060bc6fd6e25cb4d0c00ea0480d": "Onvoldoende bereik",
  "a198c4335c42739230d7d8afacdc109d": "{{OAuth 2.0 jwtBearer}}-uitwisselingsmiddleware vereist een {{issue}}-functie.",
  "a23d7ec09a60c8bbd119d8287d8b5805": "{{oauth2orize.revoke}}-middleware vereist een {{revokeToken}}-functie",
  "a2f3ad97b7b05618b6722b8f07e9f805": "Bevestigingscallback vereist voor bearerstrategie van {{OAuth 2.0 JWT}}",
  "a7b39a5a13fdba4772a83e07cb864156": "Kan geen {{OAuth 2.0}}-transacties laden vanuit sessie",
  "a82c6b0f0db10b6e198e99068e765570": "Doelgroepoptie vereist voor bearerstrategie van {{OAuth 2.0 JWT}}",
  "aaee2c79ab90ccc63b9d46795e19620a": "Uitwisseling van {{oauth2orize.clientCredentials}} vereist het opgeven van een callback",
  "ae02475e560f64afdcf6d02bc80dcb0e": "Ongeldige legitimatiegegevens van klant",
  "b1af8f34c3d25bd59189205046665bfd": "Verplichte parameter ontbreekt: {0}",
  "b1eb21b6d32dde679f9b4bf0b2e0939d": "Bevestigingscallback vereist voor {{MACStrategy}}",
  "bac74f7415259e303903cfc8a7bcc4df": "{{oauth2orize.token}}-middleware vereist een {{server}}-argument",
  "bcb1c003530e6fb715ad605ea7fe83d9": "{{issue}}-callback vereist voor verlening van {{oauth2orize.token}}",
  "cbd12265f4ab78b30a0977e37aefcf37": "Verplichte parameter ontbreekt: {{password}}",
  "cdee717bf439af4c84eabb54b82c13af": "Uitwisseling van {{oauth2orize.authorizationCode}} vereist het opgeven van een callback",
  "d36b1a9f8719a56a091ed6c89d3cd1fa": "Aanvraag geweigerd door autorisatieserver",
  "d3dd8b2220bba70a6e7e44af24a4157c": "Verplichte parameter ontbreekt: {{token}}",
  "d837f7c0309bf4816cbbb22b57473733": "{{oauth2orize.password}}-uitwisseling vereist een {{issue}}-callback",
  "d83b55a5dfd3e16ca22699e39b072f3f": "Toegangstoken heeft ongeldig {{app id}}: {0}",
  "db8b02ad229f45cbb12e0d9845b09eb2": "Keying callback vereist voor bearerstrategie van {{OAuth 2.0 JWT}}",
  "e173a3cecca19bcbf528408adc001750": "Niet-geautoriseerd responstype: {0}",
  "e82c91e82424949d4390135e5e8adf1c": "Ongeldig {{MAC}}-token",
  "eb30f051fcf0e7338bf4d8489f583378": "Niet-geautoriseerde {{scope}}: {0}",
  "ec30fea412580b611d7a274ee1163e5c": "Verplichte parameter ontbreekt: {{response_type}}",
  "ec9ddf242c3da3b5cf44def6398706ec": "{{oauth2orize.refreshToken}}-uitwisseling vereist een {{issue}}-callback",
  "ed5c8e0055b1cae433e4c393ae04d555": "Ongeldige items: {0}",
  "f06abf2e08aba65a62f4486bc2418413": "{{oauth2orize.revoke}}-middleware vereist een {{server}}-argument",
  "f24b75ecdc45edb84b0c9fec3b6f1e5b": "{{OAuth 2.0}}-transactie kan niet worden geladen: {0}",
  "f483b2bebd08d285c7009c6812f5ba24": "Toegangstoken is vervallen",
  "f50708df489d7811db692c0b601483f8": "Verplichte parameter ontbreekt: {{client_id}}",
  "fa925eb4771bd2897f14b1de78ca0ed2": "Ongeldig onderwerp: {0}",
  "fcdd5cf7956698312e899ddb708abbaf": "ontbrekende bevestigingsparameter",
  "fef19f407c562658e0132f1625ce968b": "Niet-geautoriseerd verleningstype: {0}",
  "ff7883d90a5fe850e026885759165406": "Ongeldige legitimatiegegevens voor resource-eigenaar"
}

