{
  "06f6133efc10bf1f9a2c6b5161c66fba": "Corpo da solicitação não analisado. Use o middleware do {{bodyParser}}.",
  "083123c0a745a514ce06fa527c151a46": "Middleware de {{oauth2orize.authorization}} requer um argumento de {{server}}",
  "092f3dd9c9bde61eed97f67459b46a7e": "Tipo de resposta não suportado: {0}",
  "102a3213ff01fc1b03faa5cbe720e6c0": "Código de autorização inválido",
  "10b283f781f47e879e25e3b3b84f85e3": "Permissão negada por {0}",
  "12df3715215d39fdb1c5c19775091f31": "{{OAuth2orize}} requer análise sintática do corpo. Você se esqueceu de {{app.use(express.bodyParser())}}?",
  "14b06036ad206e2b038840c24e677b4d": "{{OAuth2orize}} requer suporte a transações. Você se esqueceu de {{oauth2orize.transactionLoader(...)}}?",
  "19d7beb3c393b20162c2c43135b4f1c0": "Código de autorização está expirado",
  "1e1b2073df0a8963670e9ed1e181dfe8": "{{JWT}} inválido: {0}",
  "24ff616d05fe6b8dca8859d9dafa729e": "Cliente inválido",
  "2caa676b18561101c92e69d70820b1bf": "{{OAuth2orize}} requer suporte de {{session}}. Você se esqueceu de {{app.use(express.session(...))}}?",
  "37086a106da98d5322d134d7905d1817": "Parâmetro necessário ausente: {{code}}",
  "373b2ad70311b6537ad42719088da022": "Falha ao desserializar cliente. Registre a função de desserialização usando {{deserializeClient()}}.",
  "3bffb3bbef4312d6bcbabd3240e79ef2": "Concessão de {{oauth2orize.code}} requer um retorno de chamada de {{issue}}",
  "3cfcae051965e0da5f704a334e1e884c": "Incompatibilidades de ID do cliente",
  "43a5b5bf0c7dd0bf5fec2601fe347245": "Solicitação inválida: {{redirect_uri}} está ausente",
  "4428b355c8ba3e248b8fc0857e2181a0": "Tipo de concessão não suportado: {0}",
  "452b7bd4aed1b69b7c20fb701377c4eb": "{{redirectURI}} desautorizado: {0}",
  "47db77dd8ab3aa3c3ec1e6c955c0cc01": "Parâmetro necessário ausente: {{username}}",
  "53c21d3a92686e2956d527d097e1e1b9": "Token de acesso possui {{user id}} inválido: {0}",
  "54d8df1f46d3358dd33ba274a537b519": "Tipo de token não suportado: {0}",
  "5b853ac61fab20ec62d53e183e067ec3": "Falha ao serializar cliente. Registre a função de serialização usando {{serializeClient()}}.",
  "5bc4d117f87ba20efb8cdd4c988ed46d": "Middleware de {{oauth2orize.transactionLoader}} requer um argumento de {{server}}",
  "6d3b5c2b2c7c20cd8907a0b090f0e89c": "Token de atualização inválido",
  "6e0122e493bd949f408c1421fc757b95": "Não é possível emitir redirecionamento para transação de {{OAuth 2.0}}",
  "7175ea69be895be338ca9f9168268dab": "Middleware de {{oauth2orize.decision}} requer um argumento de {{server}}",
  "740f3fb2bd1358d65943e735224d23e5": "Parâmetro necessário ausente: {{refresh_token}}",
  "76d075ea0325d32667fad67c446e469b": "{{JWT}} inválido",
  "8000aa2c64d9c95c406053764fc33f64": "Cliente desautorizado",
  "83459aaa8e2d81c7fad2b899ad0cbf57": "O componente {{OAuth2}} não foi configurado para este aplicativo.",
  "839544ec984d6290cd45669efdd39699": "Redirecionar incompatibilidades de {{uri}}",
  "8782860f8d60f2bdb6f67d623dd7e51f": "Middleware de {{oauth2orize.authorization}} requer uma função {{validate}}",
  "9508d060bc6fd6e25cb4d0c00ea0480d": "Escopo insuficiente",
  "a198c4335c42739230d7d8afacdc109d": "Middleware de troca de {{OAuth 2.0 jwtBearer}} requer uma função {{issue}}.",
  "a23d7ec09a60c8bbd119d8287d8b5805": "Middleware de {{oauth2orize.revoke}} requer uma função {{revokeToken}}",
  "a2f3ad97b7b05618b6722b8f07e9f805": "Estratégia do portador {{OAuth 2.0 JWT}} requer um retorno de chamada de verificação",
  "a7b39a5a13fdba4772a83e07cb864156": "Não é possível carregar transações de {{OAuth 2.0}} a partir da sessão",
  "a82c6b0f0db10b6e198e99068e765570": "Estratégia do portador {{OAuth 2.0 JWT}} requer uma opção de público",
  "aaee2c79ab90ccc63b9d46795e19620a": "Troca de {{oauth2orize.clientCredentials}} requer um retorno de chamada de emissão",
  "ae02475e560f64afdcf6d02bc80dcb0e": "Credenciais do cliente inválidas",
  "b1af8f34c3d25bd59189205046665bfd": "Parâmetro obrigatório ausente: {0}",
  "b1eb21b6d32dde679f9b4bf0b2e0939d": "{{MACStrategy}} requer um retorno de chamada de verificação",
  "bac74f7415259e303903cfc8a7bcc4df": "Middleware de {{oauth2orize.token}} requer um argumento de {{server}}",
  "bcb1c003530e6fb715ad605ea7fe83d9": "Concessão de {{oauth2orize.token}} requer um retorno de chamada de {{issue}}",
  "cbd12265f4ab78b30a0977e37aefcf37": "Parâmetro necessário ausente: {{password}}",
  "cdee717bf439af4c84eabb54b82c13af": "Troca de {{oauth2orize.authorizationCode}} requer um retorno de chamada de emissão",
  "d36b1a9f8719a56a091ed6c89d3cd1fa": "Solicitação negada pelo servidor de autorização",
  "d3dd8b2220bba70a6e7e44af24a4157c": "Parâmetro necessário ausente: {{token}}",
  "d837f7c0309bf4816cbbb22b57473733": "Troca de {{oauth2orize.password}} requer um retorno de chamada de {{issue}}",
  "d83b55a5dfd3e16ca22699e39b072f3f": "Token de acesso possui {{app id}} inválido: {0}",
  "db8b02ad229f45cbb12e0d9845b09eb2": "Estratégia do portador {{OAuth 2.0 JWT}} requer um retorno de chamada de chaveamento",
  "e173a3cecca19bcbf528408adc001750": "Tipo de resposta desautorizado: {0}",
  "e82c91e82424949d4390135e5e8adf1c": "Token {{MAC}} inválido",
  "eb30f051fcf0e7338bf4d8489f583378": "{{scope}} desautorizado: {0}",
  "ec30fea412580b611d7a274ee1163e5c": "Parâmetro necessário ausente: {{response_type}}",
  "ec9ddf242c3da3b5cf44def6398706ec": "Troca de {{oauth2orize.refreshToken}} requer um retorno de chamada de {{issue}}",
  "ed5c8e0055b1cae433e4c393ae04d555": "Itens inválidos: {0}",
  "f06abf2e08aba65a62f4486bc2418413": "Middleware de {{oauth2orize.revoke}} requer um argumento de {{server}}",
  "f24b75ecdc45edb84b0c9fec3b6f1e5b": "Não é possível carregar transação de {{OAuth 2.0}}: {0}",
  "f483b2bebd08d285c7009c6812f5ba24": "O token de acesso está expirado",
  "f50708df489d7811db692c0b601483f8": "Parâmetro necessário ausente: {{client_id}}",
  "fa925eb4771bd2897f14b1de78ca0ed2": "Assunto inválido: {0}",
  "fcdd5cf7956698312e899ddb708abbaf": "parâmetro de asserção ausente",
  "fef19f407c562658e0132f1625ce968b": "Tipo de concessão desautorizado: {0}",
  "ff7883d90a5fe850e026885759165406": "Credenciais do proprietário do recurso inválidas"
}

