{
  "06f6133efc10bf1f9a2c6b5161c66fba": "Anforderungshauptteil nicht geparst. Verwenden Sie {{bodyParser}}-Middleware.",
  "083123c0a745a514ce06fa527c151a46": "{{oauth2orize.authorization}}-Middleware erfordert ein {{server}}-Argument",
  "092f3dd9c9bde61eed97f67459b46a7e": "Nicht unterstützter Antworttyp: {0}",
  "102a3213ff01fc1b03faa5cbe720e6c0": "Ungültiger Berechtigungscode",
  "10b283f781f47e879e25e3b3b84f85e3": "Berechtigung verweigert von {0}",
  "12df3715215d39fdb1c5c19775091f31": "{{OAuth2orize}} erfordert Hauptteil-Parsing. Haben Sie {{app.use(express.bodyParser())}} vergessen?",
  "14b06036ad206e2b038840c24e677b4d": "{{OAuth2orize}} erfordert Transaktionsunterstützung. Haben Sie {{oauth2orize.transactionLoader(...)}} vergessen?",
  "19d7beb3c393b20162c2c43135b4f1c0": "Berechtigungscode ist abgelaufen",
  "1e1b2073df0a8963670e9ed1e181dfe8": "Ungültiges {{JWT}}: {0}",
  "24ff616d05fe6b8dca8859d9dafa729e": "Ungültiger Client",
  "2caa676b18561101c92e69d70820b1bf": "{{OAuth2orize}} erfordert Unterstützung für {{session}}. Haben Sie {{app.use(express.session(...))}} vergessen?",
  "37086a106da98d5322d134d7905d1817": "Erforderlicher Parameter fehlt: {{code}}",
  "373b2ad70311b6537ad42719088da022": "Client wurde nicht deserialisiert. Registrieren Sie die Deserialisierungsfunktion mit {{deserializeClient()}}.",
  "3bffb3bbef4312d6bcbabd3240e79ef2": "Bewilligung von {{oauth2orize.code}} erfordert einen {{issue}}-Rückruf",
  "3cfcae051965e0da5f704a334e1e884c": "Fehlende Übereinstimmungen bei Client-ID",
  "43a5b5bf0c7dd0bf5fec2601fe347245": "Ungültige Anforderung: {{redirect_uri}} fehlt",
  "4428b355c8ba3e248b8fc0857e2181a0": "Nicht unterstützter Bewilligungstyp: {0}",
  "452b7bd4aed1b69b7c20fb701377c4eb": "Nicht autorisierter {{redirectURI}}: {0}",
  "47db77dd8ab3aa3c3ec1e6c955c0cc01": "Erforderlicher Parameter fehlt: {{username}}",
  "53c21d3a92686e2956d527d097e1e1b9": "Zugriffstoken hat eine ungültige {{user id}}: {0}",
  "54d8df1f46d3358dd33ba274a537b519": "Nicht unterstützter Tokentyp: {0}",
  "5b853ac61fab20ec62d53e183e067ec3": "Client wurde nicht serialisiert. Registrieren Sie die Serialisierungsfunktion mit {{serializeClient()}}.",
  "5bc4d117f87ba20efb8cdd4c988ed46d": "{{oauth2orize.transactionLoader}}-Middleware erfordert ein {{server}}-Argument",
  "6d3b5c2b2c7c20cd8907a0b090f0e89c": "Ungültiges Aktualisierungstoken",
  "6e0122e493bd949f408c1421fc757b95": "Es kann keine Umleitung für {{OAuth 2.0}}-Transaktion ausgegeben werden",
  "7175ea69be895be338ca9f9168268dab": "{{oauth2orize.decision}}-Middleware erfordert ein {{server}}-Argument",
  "740f3fb2bd1358d65943e735224d23e5": "Erforderlicher Parameter fehlt: {{refresh_token}}",
  "76d075ea0325d32667fad67c446e469b": "ungültiges {{JWT}}",
  "8000aa2c64d9c95c406053764fc33f64": "Nicht autorisierter Client",
  "83459aaa8e2d81c7fad2b899ad0cbf57": "Die {{OAuth2}}-Komponente wurde nicht für diese Anwendung konfiguriert.",
  "839544ec984d6290cd45669efdd39699": "Fehlende Übereinstimmungen bei Umleitungs-{{uri}}",
  "8782860f8d60f2bdb6f67d623dd7e51f": "{{oauth2orize.authorization}}-Middleware erfordert eine {{validate}}-Funktion",
  "9508d060bc6fd6e25cb4d0c00ea0480d": "Nicht ausreichender Bereich",
  "a198c4335c42739230d7d8afacdc109d": "{{OAuth 2.0 jwtBearer}}-Austausch-Middleware erfordert eine {{issue}}-Funktion.",
  "a23d7ec09a60c8bbd119d8287d8b5805": "{{oauth2orize.revoke}}-Middleware erfordert eine {{revokeToken}}-Funktion",
  "a2f3ad97b7b05618b6722b8f07e9f805": "{{OAuth 2.0 JWT}}-Trägerstrategie erfordert einen Bestätigungsrückruf",
  "a7b39a5a13fdba4772a83e07cb864156": "{{OAuth 2.0}}-Transaktionen können nicht aus Sitzung geladen werden",
  "a82c6b0f0db10b6e198e99068e765570": "{{OAuth 2.0 JWT}}-Trägerstrategie erfordert eine Zielgruppenoption",
  "aaee2c79ab90ccc63b9d46795e19620a": "Austausch von {{oauth2orize.clientCredentials}} erfordert einen Problemrückruf",
  "ae02475e560f64afdcf6d02bc80dcb0e": "Ungültige Berechtigungsnachweise",
  "b1af8f34c3d25bd59189205046665bfd": "Erforderlicher Parameter fehlt: {0}",
  "b1eb21b6d32dde679f9b4bf0b2e0939d": "{{MACStrategy}} erfordert einen Bestätigungsrückruf",
  "bac74f7415259e303903cfc8a7bcc4df": "{{oauth2orize.token}}-Middleware erfordert ein {{server}}-Argument",
  "bcb1c003530e6fb715ad605ea7fe83d9": "Bewilligung von {{oauth2orize.token}} erfordert einen {{issue}}-Rückruf",
  "cbd12265f4ab78b30a0977e37aefcf37": "Erforderlicher Parameter fehlt: {{password}}",
  "cdee717bf439af4c84eabb54b82c13af": "Austausch von {{oauth2orize.authorizationCode}} erfordert einen Problemrückruf",
  "d36b1a9f8719a56a091ed6c89d3cd1fa": "Anforderung vom Berechtigungsserver verweigert",
  "d3dd8b2220bba70a6e7e44af24a4157c": "Erforderlicher Parameter fehlt: {{token}}",
  "d837f7c0309bf4816cbbb22b57473733": "Austausch von {{oauth2orize.password}} erfordert einen {{issue}}-Rückruf",
  "d83b55a5dfd3e16ca22699e39b072f3f": "Zugriffstoken hat eine ungültige {{app id}}: {0}",
  "db8b02ad229f45cbb12e0d9845b09eb2": "{{OAuth 2.0 JWT}}-Trägerstrategie erfordert einen Texteingaberückruf",
  "e173a3cecca19bcbf528408adc001750": "Nicht autorisierter Antworttyp: {0}",
  "e82c91e82424949d4390135e5e8adf1c": "Ungültiges {{MAC}}-Token",
  "eb30f051fcf0e7338bf4d8489f583378": "Nicht autorisierter {{scope}}: {0}",
  "ec30fea412580b611d7a274ee1163e5c": "Erforderlicher Parameter fehlt: {{response_type}}",
  "ec9ddf242c3da3b5cf44def6398706ec": "Austausch von {{oauth2orize.refreshToken}} erfordert einen {{issue}}-Rückruf",
  "ed5c8e0055b1cae433e4c393ae04d555": "Ungültige Elemente: {0}",
  "f06abf2e08aba65a62f4486bc2418413": "{{oauth2orize.revoke}}-Middleware erfordert ein {{server}}-Argument",
  "f24b75ecdc45edb84b0c9fec3b6f1e5b": "{{OAuth 2.0}}-Transaktion kann nicht geladen werden: {0}",
  "f483b2bebd08d285c7009c6812f5ba24": "Zugriffstoken ist abgelaufen",
  "f50708df489d7811db692c0b601483f8": "Erforderlicher Parameter fehlt: {{client_id}}",
  "fa925eb4771bd2897f14b1de78ca0ed2": "Ungültiger Betreff: {0}",
  "fcdd5cf7956698312e899ddb708abbaf": "Assertionsparameter fehlt",
  "fef19f407c562658e0132f1625ce968b": "Nicht autorisierter Typ: {0}",
  "ff7883d90a5fe850e026885759165406": "ungültige Ressourceneigner-Berechtigungsnachweise"
}

