{
  "06f6133efc10bf1f9a2c6b5161c66fba": "未剖析要求內文。請使用 {{bodyParser}} 中介軟體。",
  "083123c0a745a514ce06fa527c151a46": "{{oauth2orize.authorization}} 中介軟體需要 {{server}} 引數",
  "092f3dd9c9bde61eed97f67459b46a7e": "不受支援的回應類型：{0}",
  "102a3213ff01fc1b03faa5cbe720e6c0": "授權碼無效",
  "10b283f781f47e879e25e3b3b84f85e3": "{0} 拒絕許可權",
  "12df3715215d39fdb1c5c19775091f31": "{{OAuth2orize}} 需要內文剖析。您是否忘記 {{app.use(express.bodyParser())}}？",
  "14b06036ad206e2b038840c24e677b4d": "{{OAuth2orize}} 需要交易支援。您是否忘記 {{oauth2orize.transactionLoader(...)}}？",
  "19d7beb3c393b20162c2c43135b4f1c0": "授權碼過期",
  "1e1b2073df0a8963670e9ed1e181dfe8": "無效 {{JWT}}：{0}",
  "24ff616d05fe6b8dca8859d9dafa729e": "用戶端無效",
  "2caa676b18561101c92e69d70820b1bf": "{{OAuth2orize}} 需要 {{session}} 支援。您是否忘記 {{app.use(express.session(...))}}？",
  "37086a106da98d5322d134d7905d1817": "遺漏必要的參數：{{code}}",
  "373b2ad70311b6537ad42719088da022": "無法將用戶端解除序列化。請使用 {{deserializeClient()}} 來登錄解除序列化函數。",
  "3bffb3bbef4312d6bcbabd3240e79ef2": "{{oauth2orize.code}} 授權需要 {{issue}} 回呼",
  "3cfcae051965e0da5f704a334e1e884c": "用戶端 id 不符",
  "43a5b5bf0c7dd0bf5fec2601fe347245": "無效要求：遺漏 {{redirect_uri}}",
  "4428b355c8ba3e248b8fc0857e2181a0": "不受支援的授權類型：{0}",
  "452b7bd4aed1b69b7c20fb701377c4eb": "未獲授權的 {{redirectURI}}：{0}",
  "47db77dd8ab3aa3c3ec1e6c955c0cc01": "遺漏必要的參數：{{username}}",
  "53c21d3a92686e2956d527d097e1e1b9": "存取記號的 {{user id}} 無效：{0}",
  "54d8df1f46d3358dd33ba274a537b519": "不受支援的記號類型：{0}",
  "5b853ac61fab20ec62d53e183e067ec3": "無法將用戶端序列化。請使用 {{serializeClient()}} 來登錄序列化函數。",
  "5bc4d117f87ba20efb8cdd4c988ed46d": "{{oauth2orize.transactionLoader}} 中介軟體需要 {{server}} 引數",
  "6d3b5c2b2c7c20cd8907a0b090f0e89c": "重新整理記號無效",
  "6e0122e493bd949f408c1421fc757b95": "無法為 {{OAuth 2.0}} 交易發出重新導向",
  "7175ea69be895be338ca9f9168268dab": "{{oauth2orize.decision}} 中介軟體需要 {{server}} 引數",
  "740f3fb2bd1358d65943e735224d23e5": "遺漏必要的參數：{{refresh_token}}",
  "76d075ea0325d32667fad67c446e469b": "{{JWT}} 無效",
  "8000aa2c64d9c95c406053764fc33f64": "未獲授權的用戶端",
  "83459aaa8e2d81c7fad2b899ad0cbf57": "未配置這個應用程式的 {{OAuth2}} 元件。",
  "839544ec984d6290cd45669efdd39699": "重新導向 {{uri}} 不符",
  "8782860f8d60f2bdb6f67d623dd7e51f": "{{oauth2orize.authorization}} 中介軟體需要 {{validate}} 函數",
  "9508d060bc6fd6e25cb4d0c00ea0480d": "範圍不足",
  "a198c4335c42739230d7d8afacdc109d": "{{OAuth 2.0 jwtBearer}} 交換中介軟體需要 {{issue}} 函數。",
  "a23d7ec09a60c8bbd119d8287d8b5805": "{{oauth2orize.revoke}} 中介軟體需要 {{revokeToken}} 函數",
  "a2f3ad97b7b05618b6722b8f07e9f805": "{{OAuth 2.0 JWT}} 載送者策略需要 verify 回呼",
  "a7b39a5a13fdba4772a83e07cb864156": "無法從階段作業載入 {{OAuth 2.0}} 交易",
  "a82c6b0f0db10b6e198e99068e765570": "{{OAuth 2.0 JWT}} 載送者策略需要 audience 選項",
  "aaee2c79ab90ccc63b9d46795e19620a": "{{oauth2orize.clientCredentials}} 交換需要 issue 回呼",
  "ae02475e560f64afdcf6d02bc80dcb0e": "用戶端認證無效",
  "b1af8f34c3d25bd59189205046665bfd": "遺漏必要的參數：{0}",
  "b1eb21b6d32dde679f9b4bf0b2e0939d": "{{MACStrategy}} 需要 verify 回呼",
  "bac74f7415259e303903cfc8a7bcc4df": "{{oauth2orize.token}} 中介軟體需要 {{server}} 引數",
  "bcb1c003530e6fb715ad605ea7fe83d9": "{{oauth2orize.token}} 授權需要 {{issue}} 回呼",
  "cbd12265f4ab78b30a0977e37aefcf37": "遺漏必要的參數：{{password}}",
  "cdee717bf439af4c84eabb54b82c13af": "{{oauth2orize.authorizationCode}} 交換需要 issue 回呼",
  "d36b1a9f8719a56a091ed6c89d3cd1fa": "授權伺服器拒絕要求",
  "d3dd8b2220bba70a6e7e44af24a4157c": "遺漏必要的參數：{{token}}",
  "d837f7c0309bf4816cbbb22b57473733": "{{oauth2orize.password}} 交換需要 {{issue}} 回呼",
  "d83b55a5dfd3e16ca22699e39b072f3f": "存取記號的 {{app id}} 無效：{0}",
  "db8b02ad229f45cbb12e0d9845b09eb2": "{{OAuth 2.0 JWT}} 載送者策略需要 keying 回呼",
  "e173a3cecca19bcbf528408adc001750": "未獲授權的回應類型：{0}",
  "e82c91e82424949d4390135e5e8adf1c": "{{MAC}} 記號無效",
  "eb30f051fcf0e7338bf4d8489f583378": "未獲授權的 {{scope}}：{0}",
  "ec30fea412580b611d7a274ee1163e5c": "遺漏必要的參數：{{response_type}}",
  "ec9ddf242c3da3b5cf44def6398706ec": "{{oauth2orize.refreshToken}} 交換需要 {{issue}} 回呼",
  "ed5c8e0055b1cae433e4c393ae04d555": "無效項目：{0}",
  "f06abf2e08aba65a62f4486bc2418413": "{{oauth2orize.revoke}} 中介軟體需要 {{server}} 引數",
  "f24b75ecdc45edb84b0c9fec3b6f1e5b": "無法載入 {{OAuth 2.0}} 交易：{0}",
  "f483b2bebd08d285c7009c6812f5ba24": "存取記號過期",
  "f50708df489d7811db692c0b601483f8": "遺漏必要的參數：{{client_id}}",
  "fa925eb4771bd2897f14b1de78ca0ed2": "無效主題：{0}",
  "fcdd5cf7956698312e899ddb708abbaf": "遺漏 assertion 參數",
  "fef19f407c562658e0132f1625ce968b": "未獲授權的授權類型：{0}",
  "ff7883d90a5fe850e026885759165406": "資源擁有者認證無效"
}

