{
  "06f6133efc10bf1f9a2c6b5161c66fba": "Corpo della richiesta non analizzato. Utilizzare il middleware {{bodyParser}}.",
  "083123c0a745a514ce06fa527c151a46": "Il middleware {{oauth2orize.authorization}} richiede un argomento {{server}}",
  "092f3dd9c9bde61eed97f67459b46a7e": "Tipo di risposta non supportato: {0}",
  "102a3213ff01fc1b03faa5cbe720e6c0": "Codice di autorizzazione non valido",
  "10b283f781f47e879e25e3b3b84f85e3": "Autorizzazione negata da {0}",
  "12df3715215d39fdb1c5c19775091f31": "{{OAuth2orize}} richiede l'analisi del corpo. {{app.use(express.bodyParser())}} dimenticato?",
  "14b06036ad206e2b038840c24e677b4d": "{{OAuth2orize}} richiede il supporto della transazione. {{oauth2orize.transactionLoader(...)}} dimenticato?",
  "19d7beb3c393b20162c2c43135b4f1c0": "Codice di autorizzazione scaduto",
  "1e1b2073df0a8963670e9ed1e181dfe8": "{{JWT}} non valido: {0}",
  "24ff616d05fe6b8dca8859d9dafa729e": "Client non valido",
  "2caa676b18561101c92e69d70820b1bf": "{{OAuth2orize}} richiede il supporto {{session}}. {{app.use(express.session(...))}} dimenticato?",
  "37086a106da98d5322d134d7905d1817": "Parametro obbligatorio mancante: {{code}}",
  "373b2ad70311b6537ad42719088da022": "Impossibile deserializzare il client. Registrare la funzione di deserializzazione utilizzando {{deserializeClient()}}.",
  "3bffb3bbef4312d6bcbabd3240e79ef2": "La concessione {{oauth2orize.code}} richiede un callback {{issue}}",
  "3cfcae051965e0da5f704a334e1e884c": "ID client non corrispondente",
  "43a5b5bf0c7dd0bf5fec2601fe347245": "Richiesta non valida: {{redirect_uri}} mancante",
  "4428b355c8ba3e248b8fc0857e2181a0": "Tipo di concessione non supportato: {0}",
  "452b7bd4aed1b69b7c20fb701377c4eb": "{{redirectURI}} non autorizzato: {0}",
  "47db77dd8ab3aa3c3ec1e6c955c0cc01": "Parametro obbligatorio mancante: {{username}}",
  "53c21d3a92686e2956d527d097e1e1b9": "Il token di accesso ha un {{user id}} non valido: {0}",
  "54d8df1f46d3358dd33ba274a537b519": "Tipo di token non supportato: {0}",
  "5b853ac61fab20ec62d53e183e067ec3": "Impossibile serializzare il client. Registrare la funzione di serializzazione utilizzando {{serializeClient()}}.",
  "5bc4d117f87ba20efb8cdd4c988ed46d": "Il middleware {{oauth2orize.transactionLoader}} richiede un argomento {{server}}",
  "6d3b5c2b2c7c20cd8907a0b090f0e89c": "Token di aggiornamento non valido",
  "6e0122e493bd949f408c1421fc757b95": "Impossibile inviare il reindirizzamento per la transazione {{OAuth 2.0}}",
  "7175ea69be895be338ca9f9168268dab": "Il middleware {{oauth2orize.decision}} richiede un argomento {{server}}",
  "740f3fb2bd1358d65943e735224d23e5": "Parametro obbligatorio mancante: {{refresh_token}}",
  "76d075ea0325d32667fad67c446e469b": "{{JWT}} non valido",
  "8000aa2c64d9c95c406053764fc33f64": "Client non autorizzato",
  "83459aaa8e2d81c7fad2b899ad0cbf57": "Il componente {{OAuth2}} non è stato configurato per questa applicazione.",
  "839544ec984d6290cd45669efdd39699": "{{uri}} di reindirizzamento non corrispondente",
  "8782860f8d60f2bdb6f67d623dd7e51f": "Il middleware {{oauth2orize.authorization}} richiede una funzione {{validate}}",
  "9508d060bc6fd6e25cb4d0c00ea0480d": "Ambito insufficiente",
  "a198c4335c42739230d7d8afacdc109d": "Il middleware di scambio {{OAuth 2.0 jwtBearer}} richiede una funzione {{issue}}.",
  "a23d7ec09a60c8bbd119d8287d8b5805": "Il middleware {{oauth2orize.revoke}} richiede una funzione {{revokeToken}}",
  "a2f3ad97b7b05618b6722b8f07e9f805": "La strategia bearer {{OAuth 2.0 JWT}} richiede un callback di verifica",
  "a7b39a5a13fdba4772a83e07cb864156": "Impossibile caricare le transazioni {{OAuth 2.0}} dalla sessione",
  "a82c6b0f0db10b6e198e99068e765570": "La strategia bearer {{OAuth 2.0 JWT}} richiede un'opzione del destinatario",
  "aaee2c79ab90ccc63b9d46795e19620a": "Lo scambio {{oauth2orize.clientCredentials}} richiede un callback di invio",
  "ae02475e560f64afdcf6d02bc80dcb0e": "Credenziali client non valide",
  "b1af8f34c3d25bd59189205046665bfd": "Parametro obbligatorio mancante: {0}",
  "b1eb21b6d32dde679f9b4bf0b2e0939d": "{{MACStrategy}} richiede un callback di verifica",
  "bac74f7415259e303903cfc8a7bcc4df": "Il middleware {{oauth2orize.token}} richiede un argomento {{server}}",
  "bcb1c003530e6fb715ad605ea7fe83d9": "La concessione {{oauth2orize.token}} richiede un callback {{issue}}",
  "cbd12265f4ab78b30a0977e37aefcf37": "Parametro obbligatorio mancante: {{password}}",
  "cdee717bf439af4c84eabb54b82c13af": "Lo scambio {{oauth2orize.authorizationCode}} richiede un callback di invio",
  "d36b1a9f8719a56a091ed6c89d3cd1fa": "Richiesta negata dal server delle autorizzazioni",
  "d3dd8b2220bba70a6e7e44af24a4157c": "Parametro obbligatorio mancante: {{token}}",
  "d837f7c0309bf4816cbbb22b57473733": "Lo scambio {{oauth2orize.password}} richiede un callback {{issue}}",
  "d83b55a5dfd3e16ca22699e39b072f3f": "Il token di accesso ha un {{app id}} non valido: {0}",
  "db8b02ad229f45cbb12e0d9845b09eb2": "La strategia bearer {{OAuth 2.0 JWT}} richiede un callback di creazione chiavi",
  "e173a3cecca19bcbf528408adc001750": "Tipo di risposta non autorizzato: {0}",
  "e82c91e82424949d4390135e5e8adf1c": "Token {{MAC}} non valido",
  "eb30f051fcf0e7338bf4d8489f583378": "{{scope}} non autorizzato: {0}",
  "ec30fea412580b611d7a274ee1163e5c": "Parametro obbligatorio mancante: {{response_type}}",
  "ec9ddf242c3da3b5cf44def6398706ec": "Lo scambio {{oauth2orize.refreshToken}} richiede un callback {{issue}}",
  "ed5c8e0055b1cae433e4c393ae04d555": "Elementi non validi: {0}",
  "f06abf2e08aba65a62f4486bc2418413": "Il middleware {{oauth2orize.revoke}} richiede un argomento {{server}}",
  "f24b75ecdc45edb84b0c9fec3b6f1e5b": "Impossibile caricare la transazione {{OAuth 2.0}}: {0}",
  "f483b2bebd08d285c7009c6812f5ba24": "Il token di accesso è scaduto",
  "f50708df489d7811db692c0b601483f8": "Parametro obbligatorio mancante: {{client_id}}",
  "fa925eb4771bd2897f14b1de78ca0ed2": "Oggetto non valido: {0}",
  "fcdd5cf7956698312e899ddb708abbaf": "parametro dell'asserzione mancante",
  "fef19f407c562658e0132f1625ce968b": "Tipo di concessione non autorizzato: {0}",
  "ff7883d90a5fe850e026885759165406": "Credenziali del proprietario della risorsa non valide"
}

